<?xml version="1.0" encoding="utf-8"?>
<svg xmlns="http://www.w3.org/2000/svg"
	xmlns:xlink="http://www.w3.org/1999/xlink"
	width="27px" height="24px">
<path fill="rgb(255,255,255)" fill-rule="evenodd" d="M 26.82 9.4C 26.82 9.4 25.52 7.56 25.52 7.56 25.52 7.56 25.51 7.57 25.5 7.57 24.03 8.6 22.01 8.24 20.98 6.78 19.95 5.32 20.31 3.3 21.78 2.28 21.78 2.27 21.79 2.27 21.8 2.26 21.8 2.26 20.5 0.42 20.5 0.42 20.19-0.03 19.58-0.13 19.13 0.18 19.13 0.18 14 3.76 14 3.76 14 3.76 15.12 5.35 15.12 5.35 15.12 5.35 13.91 6.2 13.91 6.2 13.91 6.2 12.78 4.61 12.78 4.61 12.78 4.61 0.42 13.23 0.42 13.23-0.03 13.54-0.13 14.15 0.18 14.6 0.18 14.6 6.5 23.58 6.5 23.58 6.81 24.03 7.42 24.13 7.87 23.82 7.87 23.82 20.23 15.2 20.23 15.2 20.23 15.2 19.12 13.62 19.12 13.62 19.12 13.62 20.34 12.77 20.34 12.77 20.34 12.77 21.45 14.35 21.45 14.35 21.45 14.35 26.58 10.77 26.58 10.77 27.03 10.46 27.13 9.84 26.82 9.4ZM 14.77 7.37C 14.77 7.37 15.99 6.53 15.99 6.53 15.99 6.53 17.45 8.6 17.45 8.6 17.45 8.6 16.23 9.45 16.23 9.45 16.23 9.45 14.77 7.37 14.77 7.37ZM 18.34 12.5C 18.34 12.5 16.99 10.59 16.99 10.59 16.99 10.59 18.21 9.74 18.21 9.74 18.21 9.74 19.56 11.65 19.56 11.65 19.56 11.65 18.34 12.5 18.34 12.5Z"/>
</svg>