<?xml version="1.0" encoding="utf-8"?>
<svg xmlns="http://www.w3.org/2000/svg"
	xmlns:xlink="http://www.w3.org/1999/xlink"
	width="26px" height="24px" viewBox="0 0 26 24">
<path fillRule="evenodd" d="M 24.73 11.45C 24.25 11.97 23.68 12.29 23.08 12.49 23.08 12.49 23.08 10.38 23.08 10.38 23.16 10.32 23.23 10.26 23.3 10.19 24.01 9.41 24.24 7.79 23.97 5.37 23.83 4.08 23.21 3.12 22.14 2.51 20.69 1.69 18.55 1.68 16.7 2.48 14.98 3.22 13.66 4.94 12.84 6.3 13.27 6.54 13.45 7.07 13.23 7.52 13.07 7.86 12.72 8.05 12.36 8.05 12.23 8.05 12.09 8.02 11.96 7.96 11.96 7.96 7.13 18.35 7.13 18.35 7.54 18.6 7.7 19.12 7.48 19.55 7.31 19.89 6.97 20.08 6.61 20.08 6.52 20.08 6.44 20.06 6.35 20.03 6.35 20.03 5.68 21.47 5.68 21.47 5.68 21.47 5.77 21.47 5.77 21.47 6.3 21.47 6.73 21.89 6.73 22.41 6.73 22.93 6.3 23.35 5.77 23.35 5.77 23.35 0.96 23.35 0.96 23.35 0.43 23.35-0 22.93-0 22.41-0 21.89 0.43 21.47 0.96 21.47 0.96 21.47 3.57 21.47 3.57 21.47 3.57 21.47 4.62 19.21 4.62 19.21 4.62 19.21 4.58 19.2 4.58 19.2 4.11 18.97 3.91 18.4 4.15 17.94 4.38 17.48 4.94 17.29 5.41 17.5 5.41 17.5 10.07 7.48 10.07 7.48 10.09 7.43 10.15 7.3 10.23 7.11 9.91 6.84 9.8 6.39 9.99 6 10.19 5.59 10.66 5.39 11.09 5.49 12.05 3.88 13.67 1.73 15.92 0.76 18.36-0.3 21.11-0.25 23.11 0.88 24.69 1.77 25.68 3.3 25.88 5.16 26.22 8.18 25.84 10.24 24.73 11.45ZM 19.76 9.23C 19.76 9.23 21.64 9.23 21.64 9.23 22.17 9.23 22.12 9.18 22.12 9.7 22.12 9.7 22.12 10.8 22.12 10.8 22.12 10.8 22.12 12.71 22.12 12.71 22.12 12.71 22.12 17.15 22.12 17.15 21.59 16.9 20.99 16.76 20.37 16.76 18.06 16.76 16.19 18.6 16.19 20.85 16.19 21.79 16.52 22.66 17.07 23.35 17.07 23.35 12.5 23.35 12.5 23.35 11.97 23.35 11.54 22.7 11.54 22.18 11.54 22.18 12.45 16.51 12.45 16.51 13.87 9.66 19.23 9.23 19.76 9.23ZM 20.37 17.7C 21.01 17.7 21.62 17.89 22.12 18.22 22.29 18.33 22.46 18.45 22.6 18.59 22.79 18.77 22.95 18.96 23.08 19.17 23.4 19.66 23.58 20.23 23.58 20.85 23.58 21.5 23.38 22.11 23.03 22.61 22.84 22.88 22.61 23.12 22.35 23.32 22.07 23.54 21.76 23.71 21.42 23.82 21.09 23.94 20.74 24 20.37 24 20 24 19.64 23.94 19.31 23.82 18.99 23.71 18.69 23.55 18.42 23.35 17.65 22.78 17.15 21.87 17.15 20.85 17.15 19.12 18.59 17.7 20.37 17.7ZM 20.37 22.43C 21.26 22.43 21.98 21.72 21.98 20.85 21.98 19.98 21.26 19.27 20.37 19.27 19.48 19.27 18.75 19.98 18.75 20.85 18.75 21.72 19.48 22.43 20.37 22.43Z" fill="rgb(37,49,55)"/></svg>