<?xml version="1.0" encoding="utf-8"?>
<svg xmlns="http://www.w3.org/2000/svg"
	xmlns:xlink="http://www.w3.org/1999/xlink"
	width="9px" height="28px" viewBox="0 0 9 28">
<path fillRule="evenodd" d="M 1.64 24.92C 1.64 24.92 8.75 21.24 8.75 21.24 8.75 21.24 8.77 21.35 8.77 21.35 8.79 21.5 8.87 21.76 8.93 22.04 8.93 22.04 2.18 25.54 2.18 25.54 2.18 25.54 1.64 24.92 1.64 24.92ZM 0.24 23.28C-0.26 22.75 0.18 21.64 0.24 21.35 0.24 21.35 0.48 19.94 0.48 19.94 0.48 19.94 7.87 16.11 7.87 16.11 7.87 16.11 8.58 20.24 8.58 20.24 8.58 20.24 1 24.16 1 24.16 1 24.16 0.24 23.28 0.24 23.28ZM 0.87 17.65C 0.87 17.65 7.55 14.19 7.55 14.19 7.55 14.19 7.7 15.11 7.7 15.11 7.7 15.11 0.68 18.74 0.68 18.74 0.68 18.74 0.87 17.65 0.87 17.65ZM 5.81 5.68C 5.41 5.68 5.29 5.5 4.58 5.5 3.92 5.5 3.79 5.68 3.19 5.68 2.4 5.68 1.86 5.23 1.76 4.39 1.76 4.39 1.37 1.29 1.37 1.29 1.37 0.58 2-0 2.79-0 2.79-0 6.21-0 6.21-0 7-0 7.64 0.58 7.64 1.29 7.64 1.29 7.24 4.39 7.24 4.39 7.12 5.14 6.6 5.68 5.81 5.68ZM 7.46 13.69C 7.46 13.69 0.97 17.05 0.97 17.05 0.97 17.05 1.66 12.99 1.66 12.99 1.66 12.99 6.88 10.28 6.88 10.28 6.88 10.28 7.46 13.69 7.46 13.69ZM 6.22 6.42C 6.22 6.42 6.49 7.95 6.49 7.95 6.49 7.95 2.13 10.21 2.13 10.21 2.13 10.21 2.78 6.42 2.78 6.42 3.28 5.88 5.72 5.88 6.22 6.42ZM 6.8 9.78C 6.8 9.78 1.76 12.39 1.76 12.39 1.76 12.39 1.93 11.4 1.93 11.4 1.93 11.4 6.66 8.95 6.66 8.95 6.66 8.95 6.8 9.78 6.8 9.78ZM 8.77 23.28C 8.77 23.28 5.05 27.6 5.05 27.6 4.55 28.13 4.45 28.13 3.95 27.6 3.95 27.6 2.5 25.92 2.5 25.92 2.5 25.92 9 22.55 9 22.55 9.01 22.82 8.95 23.08 8.77 23.28Z" fill="rgb(0,0,0)"/></svg>