<?xml version="1.0" encoding="utf-8"?>
<svg xmlns="http://www.w3.org/2000/svg"
	xmlns:xlink="http://www.w3.org/1999/xlink"
	width="26px" height="20px" viewBox="0 0 26 20">
<path fillRule="evenodd" d="M 25.03 20C 25.03 20 0.97 20 0.97 20 0.43 20-0 19.57-0 19.05-0 19.05-0 7.5-0 7.5-0 7.5 26 7.5 26 7.5 26 7.5 26 19.05 26 19.05 26 19.57 25.57 20 25.03 20ZM 17.2 13.37C 17.2 12.85 16.77 12.42 16.23 12.42 16.23 12.42 14.36 12.42 14.36 12.42 14.36 12.42 14.36 10.59 14.36 10.59 14.36 10.06 13.93 9.63 13.39 9.63 13.39 9.63 12.61 9.63 12.61 9.63 12.07 9.63 11.64 10.06 11.64 10.59 11.64 10.59 11.64 12.42 11.64 12.42 11.64 12.42 9.77 12.42 9.77 12.42 9.23 12.42 8.8 12.85 8.8 13.37 8.8 13.37 8.8 14.14 8.8 14.14 8.8 14.66 9.23 15.09 9.77 15.09 9.77 15.09 11.64 15.09 11.64 15.09 11.64 15.09 11.64 16.95 11.64 16.95 11.64 17.48 12.07 17.9 12.61 17.9 12.61 17.9 13.39 17.9 13.39 17.9 13.93 17.9 14.36 17.48 14.36 16.95 14.36 16.95 14.36 15.09 14.36 15.09 14.36 15.09 16.23 15.09 16.23 15.09 16.77 15.09 17.2 14.66 17.2 14.14 17.2 14.14 17.2 13.37 17.2 13.37ZM-0 4.36C-0 3.83 0.43 3.4 0.97 3.4 0.97 3.4 6.23 3.4 6.23 3.4 6.23 3.4 6.23 0.95 6.23 0.95 6.23 0.43 6.67-0 7.2-0 7.2-0 18.8-0 18.8-0 19.33-0 19.77 0.43 19.77 0.95 19.77 0.95 19.77 3.4 19.77 3.4 19.77 3.4 25.03 3.4 25.03 3.4 25.57 3.4 26 3.83 26 4.36 26 4.36 26 6.39 26 6.39 26 6.39-0 6.39-0 6.39-0 6.39-0 4.36-0 4.36ZM 8.18 3.4C 8.18 3.4 17.82 3.4 17.82 3.4 17.82 3.4 17.82 1.91 17.82 1.91 17.82 1.91 8.18 1.91 8.18 1.91 8.18 1.91 8.18 3.4 8.18 3.4Z" fill="rgb(37,49,55)"/></svg>