<?xml version="1.0" encoding="utf-8"?>
<svg xmlns="http://www.w3.org/2000/svg"
	xmlns:xlink="http://www.w3.org/1999/xlink"
	width="27px" height="24px" viewBox="0 0 27 24">
<path fillRule="evenodd" d="M 26.66 11.06C 26.66 11.06 14.52 0.37 14.52 0.37 13.96-0.12 13.04-0.12 12.48 0.37 12.48 0.37 0.34 11.06 0.34 11.06-0.22 11.56-0.07 11.96 0.68 11.96 0.68 11.96 4.43 11.96 4.43 11.96 4.43 11.96 4.43 22.91 4.43 22.91 4.43 23.51 4.92 24 5.52 24 5.52 24 10.1 24 10.1 24 10.1 24 10.1 16.8 10.1 16.8 10.1 16.2 10.59 15.71 11.19 15.71 11.19 15.71 15.82 15.71 15.82 15.71 16.42 15.71 16.91 16.19 16.91 16.8 16.91 16.8 16.91 24 16.91 24 16.91 24 21.49 24 21.49 24 22.1 24 22.58 23.51 22.58 22.91 22.58 22.91 22.58 11.96 22.58 11.96 22.58 11.96 26.33 11.96 26.33 11.96 27.07 11.96 27.22 11.56 26.66 11.06Z" fill="rgb(37,49,55)"/></svg>