<?xml version="1.0" standalone="no"?>
<!DOCTYPE svg PUBLIC "-//W3C//DTD SVG 1.1//EN" "http://www.w3.org/Graphics/SVG/1.1/DTD/svg11.dtd" >
<svg xmlns="http://www.w3.org/2000/svg">
<metadata>Generated by IcoMoon</metadata>
<defs>
<font id="icomoon" horiz-adv-x="1024">
<font-face units-per-em="1024" ascent="960" descent="-64" />
<missing-glyph horiz-adv-x="1024" />
<glyph unicode="&#x20;" d="" horiz-adv-x="512" />
<glyph unicode="&#xe600;" d="M1055.147 471.467c-20.48-22.187-44.8-35.84-70.4-44.373 0 0 0 90.027 0 90.027 3.413 2.56 6.4 5.12 9.387 8.107 30.293 33.28 40.107 102.4 28.587 205.653-5.973 55.040-32.427 96-78.080 122.027-61.867 34.987-153.173 35.413-232.107 1.28-73.387-31.573-129.707-104.96-164.693-162.987 18.347-10.24 26.027-32.853 16.64-52.053-6.827-14.507-21.76-22.613-37.12-22.613-5.547 0-11.52 1.28-17.067 3.84 0 0-206.080-443.307-206.080-443.307 17.493-10.667 24.32-32.853 14.933-51.2-7.253-14.507-21.76-22.613-37.12-22.613-3.84 0-7.253 0.853-11.093 2.133 0 0-28.587-61.44-28.587-61.44s3.84 0 3.84 0c22.613 0 40.96-17.92 40.96-40.107s-18.347-40.107-40.96-40.107c0 0-205.227 0-205.227 0-22.613 0-40.96 17.92-40.96 40.107s18.347 40.107 40.96 40.107c0 0 111.36 0 111.36 0s44.8 96.427 44.8 96.427c0 0-1.707 0.427-1.707 0.427-20.053 9.813-28.587 34.133-18.347 53.76 9.813 19.627 33.707 27.733 53.76 18.773 0 0 198.827 427.52 198.827 427.52 0.853 2.133 3.413 7.68 6.827 15.787-13.653 11.52-18.347 30.72-10.24 47.36 8.533 17.493 28.587 26.027 46.933 21.76 40.96 68.693 110.080 160.427 206.080 201.813 104.107 45.227 221.44 43.093 306.773-5.12 67.413-37.973 109.653-103.253 118.187-182.613 14.507-128.853-1.707-216.747-49.067-268.373zM843.093 566.187c0 0 80.213 0 80.213 0 22.613 0 20.48 2.133 20.48-20.053 0 0 0-46.933 0-46.933s0-81.493 0-81.493c0 0 0-189.44 0-189.44-22.613 10.667-48.213 16.64-74.667 16.64-98.56 0-178.347-78.507-178.347-174.507 0-40.107 14.080-77.227 37.547-106.667 0 0-194.987 0-194.987 0-22.613 0-40.96 27.733-40.96 49.92 0 0 38.827 241.92 38.827 241.92 60.587 292.267 289.28 310.613 311.893 310.613zM869.12 204.8c27.307 0 53.333-8.107 74.667-22.187 7.253-4.693 14.507-9.813 20.48-15.787 8.107-7.68 14.933-15.787 20.48-24.747 13.653-20.907 21.333-45.227 21.333-71.68 0-27.733-8.533-53.76-23.467-75.093-8.107-11.52-17.92-21.76-29.013-30.293-11.947-9.387-25.173-16.64-39.68-21.333-14.080-5.12-29.013-7.68-44.8-7.68s-31.147 2.56-45.227 7.68c-13.653 4.693-26.453 11.52-37.973 20.053-32.853 24.32-54.187 63.147-54.187 106.667 0 73.813 61.44 134.4 137.387 134.4zM869.12 2.987c37.973 0 68.693 30.293 68.693 67.413s-30.72 67.413-68.693 67.413c-37.973 0-69.12-30.293-69.12-67.413s31.147-67.413 69.12-67.413z" horiz-adv-x="1109" />
<glyph unicode="&#xe601;" d="M59.977 48.64c0 0 260.023 134.583 260.023 134.583s0.731-4.023 0.731-4.023c0.731-5.486 3.657-14.994 5.851-25.234 0 0-246.857-128-246.857-128s-19.749 22.674-19.749 22.674zM8.777 108.617c-18.286 19.383-2.194 59.977 0 70.583 0 0 8.777 51.566 8.777 51.566s270.263 140.069 270.263 140.069c0 0 25.966-151.040 25.966-151.040s-277.211-143.36-277.211-143.36c0 0-27.794 32.183-27.794 32.183zM31.817 314.514c0 0 244.297 126.537 244.297 126.537s5.486-33.646 5.486-33.646c0 0-256.731-132.754-256.731-132.754s6.949 39.863 6.949 39.863zM212.48 752.274c-14.629 0-19.017 6.583-44.983 6.583-24.137 0-28.891-6.583-50.834-6.583-28.891 0-48.64 16.457-52.297 47.177 0 0-14.263 113.371-14.263 113.371 0 25.966 23.040 47.177 51.931 47.177 0 0 125.074 0 125.074 0 28.891 0 52.297-21.211 52.297-47.177 0 0-14.629-113.371-14.629-113.371-4.389-27.429-23.406-47.177-52.297-47.177zM272.823 459.337c0 0-237.349-122.88-237.349-122.88s25.234 148.48 25.234 148.48c0 0 190.903 99.109 190.903 99.109s21.211-124.709 21.211-124.709zM227.474 725.211c0 0 9.874-55.954 9.874-55.954s-159.451-82.651-159.451-82.651c0 0 23.771 138.606 23.771 138.606 18.286 19.749 107.52 19.749 125.806 0zM248.686 602.331c0 0-184.32-95.451-184.32-95.451s6.217 36.206 6.217 36.206c0 0 172.983 89.6 172.983 89.6s5.12-30.354 5.12-30.354zM320.731 108.617c0 0-136.046-157.989-136.046-157.989-18.286-19.383-21.943-19.383-40.229 0 0 0-53.029 61.44-53.029 61.44s237.714 123.246 237.714 123.246c0.366-9.874-1.829-19.383-8.411-26.697z" horiz-adv-x="329" />
<glyph unicode="&#xe602;" d="M1281.536-64c0 0-1231.872 0-1231.872 0-27.648 0-49.664 22.016-49.664 48.64 0 0 0 591.36 0 591.36s1331.2 0 1331.2 0c0 0 0-591.36 0-591.36 0-26.624-22.016-48.64-49.664-48.64zM880.64 275.456c0 26.624-22.016 48.64-49.664 48.64 0 0-95.744 0-95.744 0s0 93.696 0 93.696c0 27.136-22.016 49.152-49.664 49.152 0 0-39.936 0-39.936 0-27.648 0-49.664-22.016-49.664-49.152 0 0 0-93.696 0-93.696s-95.744 0-95.744 0c-27.648 0-49.664-22.016-49.664-48.64 0 0 0-39.424 0-39.424 0-26.624 22.016-48.64 49.664-48.64 0 0 95.744 0 95.744 0s0-95.232 0-95.232c0-27.136 22.016-48.64 49.664-48.64 0 0 39.936 0 39.936 0 27.648 0 49.664 21.504 49.664 48.64 0 0 0 95.232 0 95.232s95.744 0 95.744 0c27.648 0 49.664 22.016 49.664 48.64 0 0 0 39.424 0 39.424zM0 736.768c0 27.136 22.016 49.152 49.664 49.152 0 0 269.312 0 269.312 0s0 125.44 0 125.44c0 26.624 22.528 48.64 49.664 48.64 0 0 593.92 0 593.92 0 27.136 0 49.664-22.016 49.664-48.64 0 0 0-125.44 0-125.44s269.312 0 269.312 0c27.648 0 49.664-22.016 49.664-49.152 0 0 0-103.936 0-103.936s-1331.2 0-1331.2 0c0 0 0 103.936 0 103.936zM418.816 785.92c0 0 493.568 0 493.568 0s0 76.288 0 76.288c0 0-493.568 0-493.568 0s0-76.288 0-76.288z" horiz-adv-x="1331" />
<glyph unicode="&#xe603;" d="M177.152 787.285c-21.845 0-40.619-7.509-56.661-21.845-16.043-14.677-23.893-32.427-23.893-53.248s7.851-38.571 23.893-53.248c16.043-14.336 34.816-21.845 56.661-21.845s40.277 7.509 55.296 21.845c15.36 14.677 22.869 32.427 22.869 53.248s-7.509 38.571-22.869 53.248c-15.019 14.336-33.451 21.845-55.296 21.845 0 0 0 0 0 0zM579.925 639.147c-1.365 7.168-7.168 15.36-17.408 25.259 0 0-465.92 295.595-465.92 295.595s-43.691-60.416-43.691-60.416c-10.24-13.995-7.851-25.6 6.485-35.499 14.677-9.557 26.965-7.509 37.205 6.485 0 0 25.941 35.157 25.941 35.157s378.88-239.275 378.88-239.275c0 0-311.296-54.272-311.296-54.272-10.24-1.365-18.773-6.485-25.941-15.701-7.509-8.875-9.557-18.432-6.827-27.989 0 0 67.584-251.904 67.584-251.904s-217.771-312.661-217.771-312.661c-7.168-10.923-8.875-22.869-5.461-35.157 3.755-12.629 11.264-21.504 22.869-27.307 11.605-5.461 23.552-6.827 36.181-4.096 12.288 2.731 21.845 9.899 29.355 20.821 150.869 219.477 226.987 329.728 228.352 331.093 0 0 10.923-45.739 10.923-45.739s-34.816-247.808-34.816-247.808c-1.365-11.264 1.707-21.845 8.875-32.427 7.168-10.24 17.408-16.384 30.379-18.773 12.971-2.048 24.917 1.024 35.84 8.533s17.067 17.067 18.773 27.989c0 0 34.816 254.293 34.816 254.293 1.365 8.192 1.365 17.408 0 26.965 0 0-78.507 297.984-78.507 297.984s202.411 33.109 202.411 33.109c10.24 2.731 18.432 8.533 25.259 16.725 6.485 8.192 8.875 18.091 7.509 29.013 0 0 0 0 0 0z" horiz-adv-x="580" />
<glyph unicode="&#xe604;" d="M1137.493 488.107c0 0-517.973 456.107-517.973 456.107-23.893 20.907-63.147 20.907-87.040 0 0 0-517.973-456.107-517.973-456.107-23.893-21.333-17.493-38.4 14.507-38.4 0 0 160 0 160 0s0-467.2 0-467.2c0-25.6 20.907-46.507 46.507-46.507 0 0 195.413 0 195.413 0s0 307.2 0 307.2c0 25.6 20.907 46.507 46.507 46.507 0 0 197.547 0 197.547 0 25.6 0 46.507-20.48 46.507-46.507 0 0 0-307.2 0-307.2s195.413 0 195.413 0c26.027 0 46.507 20.907 46.507 46.507 0 0 0 467.2 0 467.2s160 0 160 0c31.573 0 37.973 17.067 14.080 38.4z" horiz-adv-x="1152" />
</font></defs></svg>