<?xml version="1.0" standalone="no"?>
<!DOCTYPE svg PUBLIC "-//W3C//DTD SVG 1.1//EN" "http://www.w3.org/Graphics/SVG/1.1/DTD/svg11.dtd" >
<svg xmlns="http://www.w3.org/2000/svg">
<metadata>Generated by IcoMoon</metadata>
<defs>
<font id="icomoon" horiz-adv-x="1024">
<font-face units-per-em="1024" ascent="960" descent="-64" />
<missing-glyph horiz-adv-x="1024" />
<glyph unicode="&#x20;" d="" horiz-adv-x="512" />
<glyph unicode="&#x1ca;" d="M1518.671 979.478c0 0-955.471 0-955.471 0-31.508 0-56.714-25.994-56.714-58.289 0 0 0-255.212 0-255.212s-449.772 0-449.772 0c-31.508 0-56.714-25.994-56.714-58.289 0 0 0-593.92 0-593.92 0-32.295 25.206-58.289 56.714-58.289 0 0 955.471 0 955.471 0 31.508 0 56.714 25.994 56.714 58.289 0 0 0 255.212 0 255.212s449.772 0 449.772 0c31.508 0 56.714 25.994 56.714 58.289 0 0 0 593.92 0 593.92 0 32.295-25.206 58.289-56.714 58.289zM1012.972 13.767c0-0.788 0-0.788-0.788-0.788 0 0-956.258 0.788-956.258 0.788s0.788 594.708 0.788 594.708c0 0 956.258-0.788 956.258-0.788s0-593.92 0-593.92zM1519.458 327.269c0-0.788 0-0.788-0.788-0.788 0 0-449.772 0-449.772 0s0 281.206 0 281.206c0 32.295-25.206 58.289-56.714 58.289 0 0-448.985 0-448.985 0s0 256 0 256c0 0 956.258-0.788 956.258-0.788s0-593.92 0-593.92c0 0 0 0 0 0z" horiz-adv-x="1575" />
<glyph unicode="&#xe601;" d="M144.291 221.253c-74.007 0-134.051-59.578-134.051-132.655 0-73.542 60.044-133.12 134.051-133.12s134.051 59.578 134.051 133.12c0 73.076-60.044 132.655-134.051 132.655zM144.291 22.038c-36.771 0-67.025 29.789-67.025 66.56 0 36.305 30.255 66.095 67.025 66.095 37.236 0 67.025-29.789 67.025-66.095 0-36.771-29.789-66.56-67.025-66.56zM1174.807 350.183c0 0-181.993-112.175-181.993-112.175-3.258 7.913-5.12 16.291-5.12 25.6 0 0 0 175.942 0 175.942 0 7.913 1.396 15.825 4.189 22.807 0 0 182.924-112.175 182.924-112.175zM1015.156 492.147c10.705 6.982 23.273 11.171 36.771 11.171 0 0 326.749 0 326.749 0 11.636 0 22.342-3.258 31.651-8.378 0 0-199.68-122.88-199.68-122.88s-195.491 120.087-195.491 120.087zM1246.022 350.183c0 0 190.371 116.829 190.371 116.829 4.189-8.378 6.516-17.687 6.516-27.462 0 0 0-175.942 0-175.942 0-11.171-2.793-20.945-7.447-29.789 0 0-189.44 116.364-189.44 116.364zM954.647 167.26c0 0 341.178 0 341.178 0s0-67.491 0-67.491c0 0-326.749 0-326.749 0-4.189 56.32-36.305 104.727-82.385 132.189 0 0 0 0 0 0s0.465 0 0.465-0.465c0 0-0.465 1.862-0.465 1.862s0 678.633 0 678.633c0 0 67.956 0 67.956 0s0-744.727 0-744.727zM1408 206.823c-8.844-4.655-18.618-7.447-29.324-7.447 0 0-326.749 0-326.749 0-13.033 0-24.669 3.724-34.444 10.24 0 0 193.164 118.691 193.164 118.691s197.353-121.484 197.353-121.484zM1174.807 689.965c0 0-181.993-111.709-181.993-111.709-3.258 7.447-5.12 16.291-5.12 25.135 0 0 0 175.942 0 175.942 0 8.378 1.396 15.825 4.189 23.273 0 0 182.924-112.64 182.924-112.64zM1015.156 831.929c10.705 6.982 23.273 11.171 36.771 11.171 0 0 326.749 0 326.749 0 11.636 0 22.342-3.258 31.651-8.378 0 0-199.68-122.88-199.68-122.88s-195.491 120.087-195.491 120.087zM1246.022 689.965c0 0 190.371 117.295 190.371 117.295 4.189-8.378 6.516-17.687 6.516-27.927 0 0 0-175.942 0-175.942 0-10.705-2.793-20.48-7.447-29.324 0 0-189.44 115.898-189.44 115.898zM1408 547.071c-8.844-4.655-18.618-7.447-29.324-7.447 0 0-326.749 0-326.749 0-13.033 0-24.669 3.724-34.444 9.775 0 0 193.164 118.691 193.164 118.691s197.353-121.018 197.353-121.018zM533.876 924.089c-17.687 33.978-53.062 55.389-91.229 55.389 0 0-221.091 0-221.091 0-37.702 0-67.956-30.255-67.956-67.491 0 0 0-355.607 0-355.607s-68.422 0-68.422 0c-47.011 0-85.178-37.702-85.178-84.247 0 0 0-298.356 0-298.356 29.324 48.873 82.851 81.455 144.291 81.455 88.902 0 161.978-68.887 168.029-155.462 0 0 321.164 0 321.164 0 6.051 86.575 79.127 155.462 168.029 155.462 31.185 0 60.044-8.378 85.178-23.273 0 0 0 1.396 0 1.396s-352.815 690.735-352.815 690.735zM662.807 420.467c0 0-385.396 0-385.396 0-9.775 0-17.222 7.447-17.222 16.756 0 0 0 420.771 0 420.771 0 9.309 7.447 16.756 17.222 16.756 0 0 167.564 0 167.564 0 6.516 0 12.567-3.258 15.36-8.844 0 0 217.833-420.771 217.833-420.771 5.585-11.171-2.327-24.669-15.36-24.669zM801.513 221.253c-74.007 0-134.051-59.578-134.051-132.655 0-73.542 60.044-133.12 134.051-133.12s134.051 59.578 134.051 133.12c0 73.076-60.044 132.655-134.051 132.655zM801.513 22.038c-37.236 0-67.025 29.789-67.025 66.56 0 36.305 29.789 66.095 67.025 66.095 36.771 0 67.025-29.789 67.025-66.095 0-36.771-30.255-66.56-67.025-66.56z" horiz-adv-x="1443" />
<glyph unicode="&#xe602;" d="M758.272 700.438c0 0-102.912 0-102.912 0s0 6.656 0 6.656c0 150.528-110.080 273.408-245.76 273.408s-246.272-122.88-246.272-273.408c0 0 0-6.656 0-6.656s-102.912 0-102.912 0c0 0-59.904-744.448-59.904-744.448s818.176 0 818.176 0c0 0-60.416 744.448-60.416 744.448zM409.6 946.71c89.6 0 166.4-60.928 199.168-147.968-43.008 71.68-116.224 118.784-199.168 118.784s-156.672-47.104-199.68-118.784c32.768 87.040 110.080 147.968 199.68 147.968zM208.896 700.438c19.968 102.4 102.4 179.2 200.704 179.2s180.224-76.8 200.192-179.2c0 0-400.896 0-400.896 0z" horiz-adv-x="819" />
<glyph unicode="&#xe603;" d="M1144.32 578.411c0 0-55.467 78.507-55.467 78.507s-0.427-0.427-0.853-0.427c-62.72-43.947-148.907-28.587-192.853 33.707s-28.587 148.48 34.133 192c0 0.427 0.427 0.427 0.853 0.853 0 0-55.467 78.507-55.467 78.507-13.227 19.2-39.253 23.467-58.453 10.24 0 0-218.88-152.747-218.88-152.747s47.787-67.84 47.787-67.84c0 0-51.627-36.267-51.627-36.267s-48.213 67.84-48.213 67.84c0 0-527.36-367.787-527.36-367.787-19.2-13.227-23.467-39.253-10.24-58.453 0 0 269.653-383.147 269.653-383.147 13.227-19.2 39.253-23.467 58.453-10.24 0 0 527.36 367.787 527.36 367.787s-47.36 67.413-47.36 67.413c0 0 52.053 36.267 52.053 36.267s47.36-67.413 47.36-67.413c0 0 218.88 152.747 218.88 152.747 19.2 13.227 23.467 39.68 10.24 58.453zM630.187 665.025c0 0 52.053 35.84 52.053 35.84s62.293-88.32 62.293-88.32c0 0-52.053-36.267-52.053-36.267s-62.293 88.747-62.293 88.747zM782.507 446.145c0 0-57.6 81.493-57.6 81.493s52.053 36.267 52.053 36.267c0 0 57.6-81.493 57.6-81.493s-52.053-36.267-52.053-36.267z" horiz-adv-x="1152" />
<glyph unicode="&#xe604;" d="M926.476 614.739c0 0-463.238 0-463.238 0s-463.238 0-463.238 0c0 0 0 205.288 0 205.288s212.114 0 212.114 0c-11.703 7.314-20.48 16.091-25.844 26.331-15.116 27.794-10.728 58.027 11.215 90.21 0 0 1.463 1.95 1.463 1.95 22.43 27.307 49.25 40.96 76.069 40.96 49.737 0 91.672-46.324 131.657-91.672 19.992-21.943 39.010-43.398 56.564-55.589 17.554 12.19 36.571 33.646 56.564 55.589 39.985 45.349 81.92 91.672 131.657 91.672 26.819 0 53.638-13.653 76.069-40.96 0 0 1.463-1.95 1.463-1.95 21.943-32.183 26.331-62.415 11.215-90.21-5.364-10.24-14.141-19.017-25.844-26.331 0 0 212.114 0 212.114 0s0-205.288 0-205.288zM385.707 868.788c-36.084 40.472-73.63 82.408-110.69 82.408-18.042 0-35.596-10.24-53.638-30.72-12.678-16.579-20.968-40.472-10.728-59.977 12.19-21.943 52.175-39.985 109.714-40.472 0 0 101.912 0 101.912 0 3.413 0 6.827 0.488 9.752 0.488-15.116 13.653-30.72 30.72-46.324 48.274zM463.238 781.017c0 0-52.175 0-52.175 0s0-138.484 0-138.484c0 0 52.175 0 52.175 0s52.175 0 52.175 0c0 0 0 138.484 0 138.484s-52.175 0-52.175 0zM715.825 860.499c10.24 19.505 1.95 43.398-10.728 59.977-18.042 20.48-35.596 30.72-53.638 30.72-37.059 0-74.606-41.935-110.69-82.408-15.604-17.554-31.208-34.621-46.324-48.274 2.926 0 6.339-0.488 9.752-0.488 0 0 101.912 0 101.912 0 57.539 0.488 97.524 18.53 109.714 40.472zM411.063-16.24c0 0 52.175 0 52.175 0s52.175 0 52.175 0c0 0 0 600.747 0 600.747s357.912 0 357.912 0c0 0 0-629.029 0-629.029s-410.088 0-410.088 0c0 0-410.088 0-410.088 0s0 629.029 0 629.029c0 0 357.912 0 357.912 0s0-600.747 0-600.747z" horiz-adv-x="926" />
<glyph unicode="&#xe605;" d="M1170.56-44.522c0 0-1125.12 0-1125.12 0-24.96 0-45.44 21.76-45.44 48.64 0 0 0 591.36 0 591.36s1216 0 1216 0c0 0 0-591.36 0-591.36 0-26.88-20.48-48.64-45.44-48.64zM804.48 294.678c0 26.88-20.48 48.64-45.44 48.64 0 0-87.68 0-87.68 0s0 94.080 0 94.080c0 26.88-19.84 48.64-45.44 48.64 0 0-35.84 0-35.84 0-25.6 0-46.080-21.76-46.080-48.64 0 0 0-94.080 0-94.080s-87.040 0-87.040 0c-24.96 0-45.44-21.76-45.44-48.64 0 0 0-39.040 0-39.040 0-26.88 20.48-48.64 45.44-48.64 0 0 87.040 0 87.040 0s0-95.36 0-95.36c0-26.88 20.48-48.64 46.080-48.64 0 0 35.84 0 35.84 0 25.6 0 45.44 21.76 45.44 48.64 0 0 0 95.36 0 95.36s87.68 0 87.68 0c24.96 0 45.44 21.76 45.44 48.64 0 0 0 39.040 0 39.040zM0 756.758c0 26.88 20.48 48.64 45.44 48.64 0 0 245.76 0 245.76 0s0 125.44 0 125.44c0 26.88 20.48 48.64 45.44 48.64 0 0 542.72 0 542.72 0 24.96 0 45.44-21.76 45.44-48.64 0 0 0-125.44 0-125.44s245.76 0 245.76 0c24.96 0 45.44-21.76 45.44-48.64 0 0 0-104.32 0-104.32s-1216 0-1216 0c0 0 0 104.32 0 104.32zM382.080 805.398c0 0 451.2 0 451.2 0s0 76.16 0 76.16c0 0-451.2 0-451.2 0s0-76.16 0-76.16z" horiz-adv-x="1216" />
<glyph unicode="&#xe606;" d="M457.238 497.308c-20.035-49.864-57.878-89.934-105.517-112.195 0 0 0-27.158 0-27.158s51.2 0 51.2 0c72.57 0 131.784-61.44 131.784-137.127 0-74.797-57.878-135.346-129.558-136.682 0 0 0-128.668 0-128.668s-101.955 0-101.955 0c0 0 0 128.668 0 128.668s-35.172 0-35.172 0c0 0-0.89 0-0.89 0s-35.617 0-35.617 0c0 0 0-128.668 0-128.668s-101.51 0-101.51 0c0 0 0 128.668 0 128.668-71.68 1.336-129.558 61.885-129.558 136.682 0 75.687 59.214 137.127 131.784 137.127 0 0 50.755 0 50.755 0s0 27.158 0 27.158c-47.193 22.261-85.037 62.33-105.517 112.195-41.405 6.233-73.906 43.186-73.906 88.153 0 46.748 34.727 85.037 78.358 89.043 11.576 24.042 26.713 45.412 45.412 63.666 0 0-70.344 208.807-70.344 208.807-4.452 12.466 2.226 26.713 14.692 31.165 12.021 4.452 25.823-2.226 30.275-15.137 0 0 65.447-194.56 65.447-194.56 29.384 16.918 63.666 27.158 99.729 27.158 0 0 0.445 0 0.445 0s0 0 0 0c36.508 0 70.344-10.24 100.174-27.158 0 0 65.447 194.56 65.447 194.56 4.452 12.911 17.809 19.59 30.275 15.137s19.144-18.699 14.692-31.165c0 0-70.344-208.807-70.344-208.807 18.699-18.254 33.837-39.624 44.967-63.221 44.077-4.452 78.358-42.741 78.358-89.489 0-44.967-32.056-81.92-73.906-88.153zM439.875 309.426c-4.452 0-8.904-1.336-12.021-3.562 0 0 30.72-32.056 30.72-32.056 2.226 3.562 3.117 8.014 3.562 12.466 0 12.911-10.24 23.151-22.261 23.151zM439.875 247.986c-4.452 0-8.904-1.336-12.021-3.562 0 0 30.72-31.61 30.72-31.61 2.226 3.562 3.117 8.014 3.562 12.466 0 12.466-10.24 22.706-22.261 22.706zM462.136 160.723c0 12.466-10.24 22.706-22.261 22.706-4.452 0-8.904-1.336-12.021-3.562 0 0 30.72-31.61 30.72-31.61 2.226 3.562 3.117 7.569 3.562 12.466zM439.43 137.572c4.452 0 8.904 1.336 12.021 3.562 0 0-30.275 32.056-30.275 32.056-2.226-4.007-3.562-8.014-3.562-12.466 0-12.911 9.795-23.151 21.816-23.151zM439.43 202.128c4.452 0 8.904 1.336 12.021 3.562 0 0-30.275 32.056-30.275 32.056-2.226-3.562-3.562-8.014-3.562-12.466 0-12.911 9.795-23.151 21.816-23.151zM439.43 263.123c4.452 0 8.904 1.336 12.021 3.562 0 0-30.275 32.056-30.275 32.056-2.226-3.562-3.562-8.014-3.562-12.466 0-12.911 9.795-23.151 21.816-23.151zM267.576 737.725c0 0 0 0 0 0s0 0-0.445 0c-82.81-0.445-150.038-70.79-150.038-156.717 0-86.372 67.228-156.271 150.038-156.717 0.445 0 0.445 0 0.445 0s0 0 0 0c83.256 0.445 150.483 70.344 150.483 156.717 0 85.927-67.228 156.271-150.483 156.717zM267.576 448.779c-69.899 0.445-126.887 59.659-126.887 132.23s56.988 131.784 126.887 132.23c69.899-0.445 126.442-59.659 126.442-132.23s-56.543-131.784-126.442-132.23zM268.021 676.285c0 0 0 0 0 0-0.445 0-0.445 0-0.445 0s0 0-0.445 0c0 0 0 0 0 0-50.31-0.445-90.824-43.186-90.824-95.277 0-52.536 40.515-94.831 90.824-95.277 0.445 0 0.445 0 0.445 0s0 0 0.445 0c49.864 0.445 90.824 42.741 90.824 95.277 0 52.090-40.96 94.831-90.824 95.277z" horiz-adv-x="534" />
<glyph unicode="&#xe607;" d="M933.176 954.101c-0.445-0.89-56.988-116.202-215.93-77.913-119.763 28.939-213.704 4.897-269.357-18.254 7.123 0 13.802-0.445 20.925-0.445 0 0 13.357-0.89 13.357-0.89s-6.233-12.021-6.233-12.021c-23.151-46.748-51.2-93.050-83.256-138.463 9.35-11.13 19.59-22.706 30.275-35.172 40.070 55.652 74.797 113.53 101.955 172.744 0 0 3.117 6.233 3.117 6.233s6.678-1.336 6.678-1.336c8.014-1.781 16.473-3.562 24.487-5.788 0 0 9.35-2.671 9.35-2.671s-3.562-9.35-3.562-9.35c-27.603-69.899-65.892-139.353-113.976-206.136 9.35-11.13 19.59-23.151 30.72-35.172 52.981 73.461 95.277 150.038 125.551 227.506 0 0 3.117 8.459 3.117 8.459s8.014-3.562 8.014-3.562c7.569-3.117 14.247-6.233 21.37-9.795 0 0 6.678-3.117 6.678-3.117s-2.226-7.569-2.226-7.569c-104.181-335.694-423.847-565.871-556.522-649.127 0 0-7.123-4.452-7.123-4.452s-4.897 6.678-4.897 6.678c-7.569 11.576-14.692 23.597-21.37 35.617 0 0-4.007 7.569-4.007 7.569s7.123 4.452 7.123 4.452c41.85 26.268 105.517 69.009 175.861 126.887-10.685 11.576-20.48 23.151-30.275 34.282-65.002-53.426-123.77-93.941-162.059-118.428 0 0-9.35-5.788-9.35-5.788s-3.562 10.24-3.562 10.24c-6.233 15.583-11.13 32.501-15.137 48.974 0 0-1.336 6.233-1.336 6.233s4.897 3.562 4.897 3.562c50.31 32.946 99.283 69.454 146.031 107.743-10.685 12.021-20.925 23.597-30.275 34.282-37.398-30.72-76.577-60.55-117.092-88.598 0 0-12.021-8.459-12.021-8.459s-1.336 15.137-1.336 15.137c-1.336 13.802-1.781 26.268-1.781 38.734 0 33.391 3.562 66.783 11.13 100.174 0 0 4.007 18.699 4.007 18.699s11.576-15.583 11.576-15.583c13.357-18.699 26.713-36.508 40.070-53.871 12.466 9.795 24.487 19.144 35.617 28.494-22.261 28.939-44.522 59.659-65.892 90.824 0 0-2.671 4.007-2.671 4.007s1.781 4.452 1.781 4.452c6.678 15.583 14.692 31.165 23.151 46.748 0 0 7.569 12.911 7.569 12.911s7.569-12.466 7.569-12.466c40.96-68.118 109.969-170.518 206.136-276.035 11.576 10.685 22.706 21.37 33.391 31.61-113.085 123.77-188.772 245.315-216.376 292.063 0 0-2.671 5.343-2.671 5.343s3.562 4.897 3.562 4.897c9.795 12.021 19.59 23.597 30.275 34.282 0 0 8.014 8.459 8.014 8.459s5.788-9.795 5.788-9.795c34.727-59.659 109.078-175.416 218.157-293.398 10.24 10.685 20.925 22.261 31.165 33.837-113.53 123.325-189.663 245.315-217.266 292.508 0 0-4.007 6.678-4.007 6.678s6.233 4.897 6.233 4.897c12.911 9.795 25.823 18.699 39.179 26.713 0 0 7.569 4.897 7.569 4.897s4.452-7.569 4.452-7.569c33.837-56.097 104.626-166.066 207.026-277.816 10.24 12.466 19.59 24.042 28.939 36.063-90.379 100.174-156.271 196.786-195.45 260.897 0 0-5.343 8.904-5.343 8.904s9.35 4.007 9.35 4.007c8.459 3.562 17.363 6.678 26.268 9.795 0 0 6.233 2.226 6.233 2.226s3.562-5.343 3.562-5.343c18.699-28.939 38.289-56.543 57.878-83.256 5.788 6.678 9.795 11.576 14.247 16.918 4.452 4.897 8.904 10.685 16.028 18.699-12.911 17.809-25.823 36.063-38.734 54.762 0 0-7.569 11.13-7.569 11.13s162.504 113.976 375.318 62.776c130.894-31.61 174.525 55.207 176.751 59.214 4.007 8.459 14.692 12.021 23.151 8.014 8.459-4.452 12.021-14.692 8.014-23.597zM682.073 775.123c0 0 3.562 11.13 3.562 11.13s9.35-6.678 9.35-6.678c7.569-5.343 14.692-10.685 21.37-16.028 0 0 4.897-3.562 4.897-3.562s-1.781-5.788-1.781-5.788c-95.722-351.722-429.19-591.249-568.097-677.621 0 0-5.788-3.562-5.788-3.562s-4.897 4.452-4.897 4.452c-9.35 8.904-17.809 17.809-25.823 26.268 0 0-7.123 8.014-7.123 8.014s9.35 5.788 9.35 5.788c132.23 82.81 452.341 312.988 564.981 657.586zM753.308 712.348c0 0 4.897 14.692 4.897 14.692s9.795-11.13 9.795-11.13c10.24-10.685 19.59-22.261 28.494-33.837 0 0 2.671-3.562 2.671-3.562s-0.89-4.007-0.89-4.007c-96.612-342.372-421.176-578.783-556.077-664.71 0 0-4.007-2.671-4.007-2.671s-4.452 2.226-4.452 2.226c-13.802 7.569-27.603 16.028-40.96 25.377 0 0-10.685 7.569-10.685 7.569s11.13 7.123 11.13 7.123c132.675 84.591 452.341 317.885 560.083 662.929zM824.543 610.838c0 0 6.678 19.144 6.678 19.144s9.35-18.254 9.35-18.254c7.123-14.247 13.802-29.384 19.59-44.077 0 0 0.89-3.117 0.89-3.117s-0.89-3.117-0.89-3.117c-77.023-214.595-242.198-383.332-367.304-487.068 0 0-4.897-4.007-4.897-4.007s-23.151-16.918-32.946-26.268c-34.727-27.158-69.454-52.536-103.736-75.687 0 0-3.117-2.226-3.117-2.226s-4.007 0.89-4.007 0.89c-13.357 3.117-27.158 7.123-40.515 11.576 0 0-16.918 5.788-16.918 5.788s15.137 10.24 15.137 10.24c149.148 99.283 415.833 312.097 522.685 616.181zM869.064 466.588c0 0 12.466 27.603 12.466 27.603s4.007-30.275 4.007-30.275c2.671-19.59 3.562-38.289 3.562-56.988 0-12.021-0.445-24.932-1.781-38.734 0 0-0.89-12.911-0.89-12.911s-13.802 7.123-13.802 7.123c-8.014-13.802-15.583-26.713-23.151-38.734 6.233-3.117 12.466-6.233 18.699-9.35 0 0 10.685-4.897 10.685-4.897s-1.781-7.123-1.781-7.123c-4.007-17.809-8.904-34.727-14.692-50.31 0 0-3.117-8.459-3.117-8.459s-8.459 3.562-8.459 3.562c-15.137 6.233-28.494 12.466-40.96 18.699-9.35-12.911-18.254-24.932-27.158-36.508 14.692-7.569 30.72-14.692 49.864-23.151 0 0 8.459-3.562 8.459-3.562s-4.452-8.904-4.452-8.904c-4.897-8.904-10.24-18.254-16.473-28.494 0 0-4.007-6.233-4.007-6.233s-6.678 2.671-6.678 2.671c-20.48 8.014-40.070 16.473-58.323 24.932-10.685-12.466-20.48-24.487-30.275-35.617 17.363-8.014 36.063-16.473 56.988-24.932 0 0 11.13-4.452 11.13-4.452s-8.014-9.35-8.014-9.35c-10.24-12.466-21.37-24.042-32.946-35.172 0 0-4.007-3.562-4.007-3.562s-4.897 1.781-4.897 1.781c-20.48 7.569-40.070 16.028-58.323 24.487-10.685-11.13-22.261-22.261-33.391-33.837 12.466-6.233 26.268-12.466 42.296-19.144 0 0 15.137-6.233 15.137-6.233s-13.802-9.35-13.802-9.35c-18.254-12.466-37.843-23.597-58.323-33.391 0 0-3.117-1.336-3.117-1.336s-3.562 1.336-3.562 1.336c-12.021 4.897-23.597 10.24-35.172 15.583-12.021-10.685-24.042-20.925-36.953-32.056 0 0 16.028-8.014 16.028-8.014s-23.597-5.788-23.597-5.788c-33.391-8.014-67.673-12.021-101.51-12.021 0 0-31.61 0.445-31.61 0.445s21.816 15.583 21.816 15.583c139.353 101.51 328.125 269.357 434.087 495.082z" horiz-adv-x="935" />
</font></defs></svg>