<?xml version="1.0" encoding="utf-8"?>
<svg xmlns="http://www.w3.org/2000/svg"
	xmlns:xlink="http://www.w3.org/1999/xlink"
	width="31px" height="22px">
<path fill="rgb(255,255,255)" fill-rule="evenodd" d="M 3.1 16.29C 1.51 16.29 0.22 17.57 0.22 19.14 0.22 20.72 1.51 22 3.1 22 4.69 22 5.98 20.72 5.98 19.14 5.98 17.57 4.69 16.29 3.1 16.29ZM 3.1 20.57C 2.31 20.57 1.66 19.93 1.66 19.14 1.66 18.36 2.31 17.72 3.1 17.72 3.9 17.72 4.54 18.36 4.54 19.14 4.54 19.93 3.9 20.57 3.1 20.57ZM 25.24 13.52C 25.24 13.52 21.33 15.93 21.33 15.93 21.26 15.76 21.22 15.58 21.22 15.38 21.22 15.38 21.22 11.6 21.22 11.6 21.22 11.43 21.25 11.26 21.31 11.11 21.31 11.11 25.24 13.52 25.24 13.52ZM 21.81 10.47C 22.04 10.32 22.31 10.23 22.6 10.23 22.6 10.23 29.62 10.23 29.62 10.23 29.87 10.23 30.1 10.3 30.3 10.41 30.3 10.41 26.01 13.05 26.01 13.05 26.01 13.05 21.81 10.47 21.81 10.47ZM 26.77 13.52C 26.77 13.52 30.86 11.01 30.86 11.01 30.95 11.19 31 11.39 31 11.6 31 11.6 31 15.38 31 15.38 31 15.62 30.94 15.83 30.84 16.02 30.84 16.02 26.77 13.52 26.77 13.52ZM 20.51 17.45C 20.51 17.45 27.84 17.45 27.84 17.45 27.84 17.45 27.84 18.9 27.84 18.9 27.84 18.9 20.82 18.9 20.82 18.9 20.73 17.69 20.04 16.65 19.05 16.06 19.05 16.06 19.05 16.06 19.05 16.06 19.05 16.06 19.06 16.06 19.06 16.07 19.06 16.07 19.05 16.03 19.05 16.03 19.05 16.03 19.05 1.45 19.05 1.45 19.05 1.45 20.51 1.45 20.51 1.45 20.51 1.45 20.51 17.45 20.51 17.45ZM 30.25 16.6C 30.06 16.7 29.85 16.76 29.62 16.76 29.62 16.76 22.6 16.76 22.6 16.76 22.32 16.76 22.07 16.68 21.86 16.54 21.86 16.54 26.01 13.99 26.01 13.99 26.01 13.99 30.25 16.6 30.25 16.6ZM 25.24 6.22C 25.24 6.22 21.33 8.62 21.33 8.62 21.26 8.46 21.22 8.27 21.22 8.08 21.22 8.08 21.22 4.3 21.22 4.3 21.22 4.12 21.25 3.96 21.31 3.8 21.31 3.8 25.24 6.22 25.24 6.22ZM 21.81 3.17C 22.04 3.02 22.31 2.93 22.6 2.93 22.6 2.93 29.62 2.93 29.62 2.93 29.87 2.93 30.1 3 30.3 3.11 30.3 3.11 26.01 5.75 26.01 5.75 26.01 5.75 21.81 3.17 21.81 3.17ZM 26.77 6.22C 26.77 6.22 30.86 3.7 30.86 3.7 30.95 3.88 31 4.08 31 4.3 31 4.3 31 8.08 31 8.08 31 8.31 30.94 8.52 30.84 8.71 30.84 8.71 26.77 6.22 26.77 6.22ZM 30.25 9.29C 30.06 9.39 29.85 9.45 29.62 9.45 29.62 9.45 22.6 9.45 22.6 9.45 22.32 9.45 22.07 9.37 21.86 9.24 21.86 9.24 26.01 6.69 26.01 6.69 26.01 6.69 30.25 9.29 30.25 9.29ZM 11.47 1.19C 11.09 0.46 10.33-0 9.51-0 9.51-0 4.76-0 4.76-0 3.95-0 3.3 0.65 3.3 1.45 3.3 1.45 3.3 9.09 3.3 9.09 3.3 9.09 1.83 9.09 1.83 9.09 0.82 9.09-0 9.9-0 10.9-0 10.9-0 17.31-0 17.31 0.63 16.26 1.78 15.56 3.1 15.56 5.01 15.56 6.58 17.04 6.71 18.9 6.71 18.9 13.61 18.9 13.61 18.9 13.74 17.04 15.31 15.56 17.22 15.56 17.89 15.56 18.51 15.74 19.05 16.06 19.05 16.06 19.05 16.03 19.05 16.03 19.05 16.03 11.47 1.19 11.47 1.19ZM 14.24 12.01C 14.24 12.01 5.96 12.01 5.96 12.01 5.75 12.01 5.59 11.85 5.59 11.65 5.59 11.65 5.59 2.61 5.59 2.61 5.59 2.41 5.75 2.25 5.96 2.25 5.96 2.25 9.56 2.25 9.56 2.25 9.7 2.25 9.83 2.32 9.89 2.44 9.89 2.44 14.57 11.48 14.57 11.48 14.69 11.72 14.52 12.01 14.24 12.01ZM 17.22 16.29C 15.63 16.29 14.34 17.57 14.34 19.14 14.34 20.72 15.63 22 17.22 22 18.81 22 20.1 20.72 20.1 19.14 20.1 17.57 18.81 16.29 17.22 16.29ZM 17.22 20.57C 16.42 20.57 15.78 19.93 15.78 19.14 15.78 18.36 16.42 17.72 17.22 17.72 18.01 17.72 18.66 18.36 18.66 19.14 18.66 19.93 18.01 20.57 17.22 20.57Z"/>
</svg>