<?xml version="1.0" encoding="utf-8"?>
<svg xmlns="http://www.w3.org/2000/svg"
	xmlns:xlink="http://www.w3.org/1999/xlink"
	width="19px" height="16px">
<path fill="rgb(255,255,255)" fill-rule="evenodd" d="M 18.29 16C 18.29 16 0.71 16 0.71 16 0.32 16-0 15.66-0 15.24-0 15.24-0 6-0 6-0 6 19 6 19 6 19 6 19 15.24 19 15.24 19 15.66 18.68 16 18.29 16ZM 12.57 10.7C 12.57 10.28 12.25 9.94 11.86 9.94 11.86 9.94 10.49 9.94 10.49 9.94 10.49 9.94 10.49 8.47 10.49 8.47 10.49 8.05 10.18 7.71 9.78 7.71 9.78 7.71 9.22 7.71 9.22 7.71 8.82 7.71 8.5 8.05 8.5 8.47 8.5 8.47 8.5 9.94 8.5 9.94 8.5 9.94 7.14 9.94 7.14 9.94 6.75 9.94 6.43 10.28 6.43 10.7 6.43 10.7 6.43 11.31 6.43 11.31 6.43 11.73 6.75 12.07 7.14 12.07 7.14 12.07 8.5 12.07 8.5 12.07 8.5 12.07 8.5 13.56 8.5 13.56 8.5 13.98 8.82 14.32 9.22 14.32 9.22 14.32 9.78 14.32 9.78 14.32 10.18 14.32 10.49 13.98 10.49 13.56 10.49 13.56 10.49 12.07 10.49 12.07 10.49 12.07 11.86 12.07 11.86 12.07 12.25 12.07 12.57 11.73 12.57 11.31 12.57 11.31 12.57 10.7 12.57 10.7ZM-0 3.48C-0 3.06 0.32 2.72 0.71 2.72 0.71 2.72 4.55 2.72 4.55 2.72 4.55 2.72 4.55 0.76 4.55 0.76 4.55 0.34 4.87-0 5.26-0 5.26-0 13.74-0 13.74-0 14.13-0 14.45 0.34 14.45 0.76 14.45 0.76 14.45 2.72 14.45 2.72 14.45 2.72 18.29 2.72 18.29 2.72 18.68 2.72 19 3.06 19 3.48 19 3.48 19 5.11 19 5.11 19 5.11-0 5.11-0 5.11-0 5.11-0 3.48-0 3.48ZM 5.97 2.72C 5.97 2.72 13.02 2.72 13.02 2.72 13.02 2.72 13.02 1.53 13.02 1.53 13.02 1.53 5.97 1.53 5.97 1.53 5.97 1.53 5.97 2.72 5.97 2.72Z"/>
</svg>